75,-103,-98.705,0.6,0,0,0,0,1,1,1,1,0,1,1,1,-1,-1,1,-1,-1,1,-1,1
75,-103,-98.705,0.6,0,0,0,0,1,1,1,1,0,1,1,1,-1,-1,1,-1,-1,1,-1,1
75,-103,-98.705,0.6,0,0,0,0,1,1,1,1,0,1,1,1,-1,-1,1,-1,-1,1,-1,1
75,-103,-98.705,0.6,0,0,0,0,1,1,1,1,0,1,1,1,-1,-1,1,-1,-1,1,-1,1
75,-103,-98.705,0.6,0,0,0,0,1,1,1,1,0,1,1,1,-1,-1,1,-1,-1,1,-1,1
75,-103,-98.705,0.6,0,0,0,0,1,1,1,1,0,1,1,1,-1,-1,1,-1,-1,1,-1,1
75,-103,-98.705,0.6,0,0,0,0,1,1,1,1,0,1,1,1,-1,-1,1,-1,-1,1,-1,1
75,-103,-98.705,0.6,0,0,0,0,1,1,1,1,0,1,1,1,-1,-1,1,-1,-1,1,-1,1
75,-103,-98.705,0.6,0,0,0,0,1,1,1,1,0,1,1,1,-1,-1,1,-1,-1,1,-1,1
113,-103,-213.15,0.6,0,1,1,0,0,1,1,0,0,1,1,-1,1,1,-1,1,1,-1,-1,-1
113,-103,-213.15,0.6,0,1,1,0,0,1,1,0,0,1,1,-1,1,1,-1,1,1,-1,-1,-1
113,-103,-213.15,0.6,0,1,1,0,0,1,1,0,0,1,1,-1,1,1,-1,1,1,-1,-1,-1
113,-103,-213.15,0.6,0,1,1,0,0,1,1,0,0,1,1,-1,1,1,-1,1,1,-1,-1,-1
113,-103,-213.15,0.6,0,1,1,0,0,1,1,0,0,1,1,-1,1,1,-1,1,1,-1,-1,-1
113,-103,-213.15,0.6,0,1,1,0,0,1,1,0,0,1,1,-1,1,1,-1,1,1,-1,-1,-1
113,-103,-213.15,0.6,0,1,1,0,0,1,1,0,0,1,1,-1,1,1,-1,1,1,-1,-1,-1
113,-103,-213.15,0.6,0,1,1,0,0,1,1,0,0,1,1,-1,1,1,-1,1,1,-1,-1,-1
93,-103,-216.17,0.6,0,0,1,0,0,1,1,0,1,1,-1,-1,1,1,-1,1,1,1,-1,-1
93,-103,-218.29,0.6,0,0,1,0,0,1,1,0,1,1,-1,-1,1,1,-1,1,1,1,-1,-1
105,-103,-227.03,0.6,0,0,1,0,0,1,1,0,1,1,-1,1,1,1,-1,1,1,-1,-1,-1
21,-103,-246.35,0.6,0,0,1,0,1,1,0,0,1,1,-1,1,1,-1,-1,1,1,-1,-1,1
21,-103,-261.76,0.6,0,0,1,0,1,0,1,0,1,1,-1,1,1,-1,-1,1,1,-1,-1,1
-51,-103,-275.22,0.8,0,0,1,0,1,0,1,0,1,1,-1,-1,1,-1,-1,1,1,-1,1,1
-49,-103,-529.38,0.8,0,0,1,0,1,0,1,0,1,1,1,1,-1,1,1,-1,-1,1,-1,-1
-49,-103,-529.38,0.8,0,0,1,0,1,0,1,0,1,1,1,1,-1,1,1,-1,-1,1,-1,-1
-49,-103,-529.38,0.8,0,0,1,0,1,0,1,0,1,1,1,1,-1,1,1,-1,-1,1,-1,-1
-49,-103,-529.38,0.8,0,0,1,0,1,0,1,0,1,1,1,1,-1,1,1,-1,-1,1,-1,-1
-49,-103,-529.38,0.8,0,0,1,0,1,0,1,0,1,1,1,1,-1,1,1,-1,-1,1,-1,-1
-49,-103,-529.38,0.8,0,0,1,0,1,0,1,0,1,1,1,1,-1,1,1,-1,-1,1,-1,-1
-49,-103,-529.38,0.8,0,0,1,0,1,0,1,0,1,1,1,1,-1,1,1,-1,-1,1,-1,-1
-49,-103,-529.38,0.8,0,0,1,0,1,0,1,0,1,1,1,1,-1,1,1,-1,-1,1,-1,-1
-49,-103,-529.38,0.8,0,0,1,0,1,0,1,0,1,1,1,1,-1,1,1,-1,-1,1,-1,-1
-49,-103,-529.38,0.8,0,0,1,0,1,0,1,0,1,1,1,1,-1,1,1,-1,-1,1,-1,-1
-49,-103,-529.38,0.8,0,0,1,0,1,0,1,0,1,1,1,1,-1,1,1,-1,-1,1,-1,-1
-49,-103,-810.24,0.8,0,0,1,0,0,1,1,0,1,1,1,1,-1,1,1,-1,-1,1,-1,-1
-49,-103,-1238.4,0.8,0,0,1,0,0,1,1,0,1,1,1,1,-1,1,1,-1,-1,1,-1,-1
