34,-214,-69.356
34,-214,-69.356
34,-214,-89.704
34,-214,-209.79
34,-214,-211.08
34,-214,-212
34,-214,-212.65
34,-214,-213.1
34,-214,-213.41
34,-214,-213.62
34,-214,-213.78
34,-214,-213.87
34,-214,-213.95
34,-214,-214
34,-214,-214.04
34,-214,-214.08
-214,-214,-217.61
-214,-214,-217.61
-214,-214,-217.61
-214,-214,-217.61
-214,-214,-217.61
-214,-214,-217.61
-214,-214,-217.61
-214,-214,-217.61
-214,-214,-217.61
-214,-214,-217.61
-214,-214,-217.61
-214,-214,-217.61
-214,-214,-217.61
-214,-214,-217.61
-214,-214,-217.61
-214,-214,-217.61
-214,-214,-217.61
-214,-214,-217.61
-214,-214,-217.61
-214,-214,-217.61
-214,-214,-217.61
-214,-214,-217.61
-214,-214,-217.61
-214,-214,-217.61
-214,-214,-217.61
-214,-214,-217.61
-214,-214,-217.61
-214,-214,-217.61
-214,-214,-217.61
